<?xml version="1.0" encoding="UTF-8" standalone="no"?>
<!-- Created with Inkscape (http://www.inkscape.org/) -->

<svg
   xmlns:dc="http://purl.org/dc/elements/1.1/"
   xmlns:cc="http://creativecommons.org/ns#"
   xmlns:rdf="http://www.w3.org/1999/02/22-rdf-syntax-ns#"
   xmlns:svg="http://www.w3.org/2000/svg"
   xmlns="http://www.w3.org/2000/svg"
   xmlns:sodipodi="http://sodipodi.sourceforge.net/DTD/sodipodi-0.dtd"
   xmlns:inkscape="http://www.inkscape.org/namespaces/inkscape"
   width="118.58574mm"
   height="78.655762mm"
   viewBox="0 0 118.58574 78.655762"
   version="1.1"
   id="svg4585"
   inkscape:version="0.92.2 (5c3e80d, 2017-08-06)"
   sodipodi:docname="joystick_v100_bottom_web.svg">
  <defs
     id="defs4579" />
  <sodipodi:namedview
     id="base"
     pagecolor="#ffffff"
     bordercolor="#666666"
     borderopacity="1.0"
     inkscape:pageopacity="0.0"
     inkscape:pageshadow="2"
     inkscape:zoom="0.35"
     inkscape:cx="2146.9562"
     inkscape:cy="-717.07348"
     inkscape:document-units="mm"
     inkscape:current-layer="layer1"
     showgrid="false"
     fit-margin-top="0"
     fit-margin-left="0"
     fit-margin-right="0"
     fit-margin-bottom="0"
     inkscape:window-width="1920"
     inkscape:window-height="981"
     inkscape:window-x="0"
     inkscape:window-y="28"
     inkscape:window-maximized="1" />
  <metadata
     id="metadata4582">
    <rdf:RDF>
      <cc:Work
         rdf:about="">
        <dc:format>image/svg+xml</dc:format>
        <dc:type
           rdf:resource="http://purl.org/dc/dcmitype/StillImage" />
        <dc:title></dc:title>
      </cc:Work>
    </rdf:RDF>
  </metadata>
  <g
     inkscape:label="Layer 1"
     inkscape:groupmode="layer"
     id="layer1"
     transform="translate(571.07263,119.54812)">
    <g
       id="g5887">
      <g
         transform="matrix(-1.0054167,0,0,1.0054167,-451.90948,-39.981927)"
         id="g77034-1"
         style="display:inline;fill:none;stroke-linecap:round;stroke-linejoin:round;enable-background:new">
        <ellipse
           style="opacity:1;fill:#da2e2f;fill-opacity:1;stroke:none;stroke-width:4.02519703;stroke-linecap:round;stroke-linejoin:round;stroke-miterlimit:4;stroke-dasharray:none;stroke-opacity:1"
           id="path77012-0"
           cx="36.252682"
           cy="-40.021523"
           rx="35.678383"
           ry="38.980606" />
        <rect
           style="opacity:1;fill:#da2e2f;fill-opacity:1;stroke:none;stroke-width:4.02519703;stroke-linecap:round;stroke-linejoin:round;stroke-miterlimit:4;stroke-dasharray:none;stroke-opacity:1"
           id="rect77008-0"
           width="44.245098"
           height="78.232002"
           x="37.9314"
           y="-79.137527" />
        <ellipse
           style="opacity:1;fill:#da2e2f;fill-opacity:1;stroke:none;stroke-width:4.02519703;stroke-linecap:round;stroke-linejoin:round;stroke-miterlimit:4;stroke-dasharray:none;stroke-opacity:1"
           id="path77012-6-1"
           cx="82.842773"
           cy="-40.021523"
           rx="35.678383"
           ry="38.980606" />
      </g>
      <circle
         transform="scale(-1,1)"
         r="2.6458333"
         cy="-110.20738"
         cx="472.19125"
         id="path450014-82"
         style="display:inline;opacity:0.97000002;fill:#ffffff;fill-opacity:1;stroke:none;stroke-width:1.13420045;stroke-linecap:round;stroke-linejoin:round;stroke-miterlimit:4;stroke-dasharray:none;stroke-opacity:1;enable-background:new" />
      <circle
         transform="scale(-1,1)"
         r="2.6458333"
         cy="-110.25142"
         cx="552.31824"
         id="path450014-4-2"
         style="display:inline;opacity:0.97000002;fill:#ffffff;fill-opacity:1;stroke:none;stroke-width:1.13420045;stroke-linecap:round;stroke-linejoin:round;stroke-miterlimit:4;stroke-dasharray:none;stroke-opacity:1;enable-background:new" />
      <circle
         transform="scale(-1,1)"
         r="2.6458333"
         cy="-79.894386"
         cx="512.35455"
         id="path450014-8-5"
         style="display:inline;opacity:0.97000002;fill:#ffffff;fill-opacity:1;stroke:none;stroke-width:1.13420045;stroke-linecap:round;stroke-linejoin:round;stroke-miterlimit:4;stroke-dasharray:none;stroke-opacity:1;enable-background:new" />
      <circle
         transform="scale(-1,1)"
         r="2.6458333"
         cy="-50.209812"
         cx="552.31824"
         id="path450014-9-6"
         style="display:inline;opacity:0.97000002;fill:#ffffff;fill-opacity:1;stroke:none;stroke-width:1.13420045;stroke-linecap:round;stroke-linejoin:round;stroke-miterlimit:4;stroke-dasharray:none;stroke-opacity:1;enable-background:new" />
      <circle
         transform="scale(-1,1)"
         r="2.6458333"
         cy="-50.11375"
         cx="471.91052"
         id="path450014-5-7"
         style="display:inline;opacity:0.97000002;fill:#ffffff;fill-opacity:1;stroke:none;stroke-width:1.13420045;stroke-linecap:round;stroke-linejoin:round;stroke-miterlimit:4;stroke-dasharray:none;stroke-opacity:1;enable-background:new" />
      <g
         transform="matrix(0.2822222,0,0,-0.2822222,-663.48763,116.00462)"
         id="g50478-7-3"
         style="display:inline;fill:none;stroke-linecap:round;stroke-linejoin:round;enable-background:new">
        <ellipse
           style="fill:#999999;fill-opacity:1;stroke:#999999;stroke-width:1.27874994;stroke-linejoin:round;stroke-miterlimit:10.30000019;stroke-dasharray:none;stroke-opacity:1"
           id="path306478-2-2-4"
           cx="498.37476"
           cy="788.82556"
           rx="2.6414988"
           ry="2.6497605" />
        <rect
           style="opacity:1;fill:#999999;fill-opacity:1;stroke:none;stroke-width:1.25270295;stroke-linejoin:round;stroke-miterlimit:10.30000019;stroke-dasharray:none;stroke-opacity:1"
           id="rect50473-2-0"
           width="5.4601502"
           height="6.5699372"
           x="493.03296"
           y="785.53265" />
        <ellipse
           style="fill:#666766;fill-opacity:1;stroke:#999999;stroke-width:1.27874994;stroke-linejoin:round;stroke-miterlimit:10.30000019;stroke-dasharray:none;stroke-opacity:1"
           id="path306478-6-1"
           cx="493.13229"
           cy="788.82556"
           rx="2.6414988"
           ry="2.6497605" />
      </g>
      <g
         transform="matrix(-0.2822222,0,0,0.2822222,-396.11058,-329.27467)"
         id="g50478-7-71"
         style="display:inline;fill:none;stroke-linecap:round;stroke-linejoin:round;enable-background:new">
        <ellipse
           style="fill:#999999;fill-opacity:1;stroke:#999999;stroke-width:1.27874994;stroke-linejoin:round;stroke-miterlimit:10.30000019;stroke-dasharray:none;stroke-opacity:1"
           id="path306478-2-2-3"
           cx="498.37476"
           cy="788.82556"
           rx="2.6414988"
           ry="2.6497605" />
        <rect
           style="opacity:1;fill:#999999;fill-opacity:1;stroke:none;stroke-width:1.25270295;stroke-linejoin:round;stroke-miterlimit:10.30000019;stroke-dasharray:none;stroke-opacity:1"
           id="rect50473-2-42"
           width="5.4601502"
           height="6.5699372"
           x="493.03296"
           y="785.53265" />
        <ellipse
           style="fill:#666766;fill-opacity:1;stroke:#999999;stroke-width:1.27874994;stroke-linejoin:round;stroke-miterlimit:10.30000019;stroke-dasharray:none;stroke-opacity:1"
           id="path306478-6-7"
           cx="493.13229"
           cy="788.82556"
           rx="2.6414988"
           ry="2.6497605" />
      </g>
      <g
         transform="matrix(-0.26458333,0,0,0.26458333,-502.24319,-43.337439)"
         id="g15444"
         style="display:inline;fill:none;stroke-linecap:round;stroke-linejoin:round;enable-background:new">
        <g
           id="g50478"
           transform="matrix(0,-1.0666666,1.0666666,0,-822.87493,277.01485)">
          <ellipse
             ry="2.6497605"
             rx="2.6414988"
             cy="788.82556"
             cx="498.37476"
             id="path306478-2"
             style="fill:#999999;fill-opacity:1;stroke:#999999;stroke-width:1.27874994;stroke-linejoin:round;stroke-miterlimit:10.30000019;stroke-dasharray:none;stroke-opacity:1" />
          <rect
             y="785.53265"
             x="493.03296"
             height="6.5699372"
             width="5.4601502"
             id="rect50473"
             style="opacity:1;fill:#999999;fill-opacity:1;stroke:none;stroke-width:1.25270295;stroke-linejoin:round;stroke-miterlimit:10.30000019;stroke-dasharray:none;stroke-opacity:1" />
          <ellipse
             ry="2.6497605"
             rx="2.6414988"
             cy="788.82556"
             cx="493.13229"
             id="path306478"
             style="fill:#666766;fill-opacity:1;stroke:#999999;stroke-width:1.27874994;stroke-linejoin:round;stroke-miterlimit:10.30000019;stroke-dasharray:none;stroke-opacity:1" />
        </g>
        <g
           id="g50478-8"
           transform="matrix(0,-1.0666666,1.0666666,0,-813.35349,277.01484)">
          <ellipse
             ry="2.6497605"
             rx="2.6414988"
             cy="788.82556"
             cx="498.37476"
             id="path306478-2-9"
             style="fill:#999999;fill-opacity:1;stroke:#999999;stroke-width:1.27874994;stroke-linejoin:round;stroke-miterlimit:10.30000019;stroke-dasharray:none;stroke-opacity:1" />
          <rect
             y="785.53265"
             x="493.03296"
             height="6.5699372"
             width="5.4601502"
             id="rect50473-3"
             style="opacity:1;fill:#999999;fill-opacity:1;stroke:none;stroke-width:1.25270295;stroke-linejoin:round;stroke-miterlimit:10.30000019;stroke-dasharray:none;stroke-opacity:1" />
          <ellipse
             ry="2.6497605"
             rx="2.6414988"
             cy="788.82556"
             cx="493.13229"
             id="path306478-8"
             style="fill:#666766;fill-opacity:1;stroke:#999999;stroke-width:1.27874994;stroke-linejoin:round;stroke-miterlimit:10.30000019;stroke-dasharray:none;stroke-opacity:1" />
        </g>
        <g
           id="g50478-7"
           transform="matrix(0,-1.0666666,1.0666666,0,-803.78861,277.01484)">
          <ellipse
             ry="2.6497605"
             rx="2.6414988"
             cy="788.82556"
             cx="498.37476"
             id="path306478-2-2"
             style="fill:#999999;fill-opacity:1;stroke:#999999;stroke-width:1.27874994;stroke-linejoin:round;stroke-miterlimit:10.30000019;stroke-dasharray:none;stroke-opacity:1" />
          <rect
             y="785.53265"
             x="493.03296"
             height="6.5699372"
             width="5.4601502"
             id="rect50473-2"
             style="opacity:1;fill:#999999;fill-opacity:1;stroke:none;stroke-width:1.25270295;stroke-linejoin:round;stroke-miterlimit:10.30000019;stroke-dasharray:none;stroke-opacity:1" />
          <ellipse
             ry="2.6497605"
             rx="2.6414988"
             cy="788.82556"
             cx="493.13229"
             id="path306478-6"
             style="fill:#666766;fill-opacity:1;stroke:#999999;stroke-width:1.27874994;stroke-linejoin:round;stroke-miterlimit:10.30000019;stroke-dasharray:none;stroke-opacity:1" />
        </g>
        <g
           id="g50478-7-4"
           transform="matrix(0,-1.0666666,1.0666666,0,-794.19216,277.01485)">
          <ellipse
             ry="2.6497605"
             rx="2.6414988"
             cy="788.82556"
             cx="498.37476"
             id="path306478-2-2-6"
             style="fill:#999999;fill-opacity:1;stroke:#999999;stroke-width:1.27874994;stroke-linejoin:round;stroke-miterlimit:10.30000019;stroke-dasharray:none;stroke-opacity:1" />
          <rect
             y="785.53265"
             x="493.03296"
             height="6.5699372"
             width="5.4601502"
             id="rect50473-2-8"
             style="opacity:1;fill:#999999;fill-opacity:1;stroke:none;stroke-width:1.25270295;stroke-linejoin:round;stroke-miterlimit:10.30000019;stroke-dasharray:none;stroke-opacity:1" />
          <ellipse
             ry="2.6497605"
             rx="2.6414988"
             cy="788.82556"
             cx="493.13229"
             id="path306478-6-6"
             style="fill:#666766;fill-opacity:1;stroke:#999999;stroke-width:1.27874994;stroke-linejoin:round;stroke-miterlimit:10.30000019;stroke-dasharray:none;stroke-opacity:1" />
        </g>
        <g
           id="g50478-7-7"
           transform="matrix(0,-1.0666666,1.0666666,0,-784.46944,277.01484)">
          <ellipse
             ry="2.6497605"
             rx="2.6414988"
             cy="788.82556"
             cx="498.37476"
             id="path306478-2-2-1"
             style="fill:#999999;fill-opacity:1;stroke:#999999;stroke-width:1.27874994;stroke-linejoin:round;stroke-miterlimit:10.30000019;stroke-dasharray:none;stroke-opacity:1" />
          <rect
             y="785.53265"
             x="493.03296"
             height="6.5699372"
             width="5.4601502"
             id="rect50473-2-6"
             style="opacity:1;fill:#999999;fill-opacity:1;stroke:none;stroke-width:1.25270295;stroke-linejoin:round;stroke-miterlimit:10.30000019;stroke-dasharray:none;stroke-opacity:1" />
          <ellipse
             ry="2.6497605"
             rx="2.6414988"
             cy="788.82556"
             cx="493.13229"
             id="path306478-6-9"
             style="fill:#666766;fill-opacity:1;stroke:#999999;stroke-width:1.27874994;stroke-linejoin:round;stroke-miterlimit:10.30000019;stroke-dasharray:none;stroke-opacity:1" />
        </g>
        <g
           id="g50478-9"
           transform="matrix(0,1.0666666,-1.0666666,0,859.8268,-765.00289)">
          <ellipse
             ry="2.6497605"
             rx="2.6414988"
             cy="788.82556"
             cx="498.37476"
             id="path306478-2-3"
             style="fill:#999999;fill-opacity:1;stroke:#999999;stroke-width:1.27874994;stroke-linejoin:round;stroke-miterlimit:10.30000019;stroke-dasharray:none;stroke-opacity:1" />
          <rect
             y="785.53265"
             x="493.03296"
             height="6.5699372"
             width="5.4601502"
             id="rect50473-36"
             style="opacity:1;fill:#999999;fill-opacity:1;stroke:none;stroke-width:1.25270295;stroke-linejoin:round;stroke-miterlimit:10.30000019;stroke-dasharray:none;stroke-opacity:1" />
          <ellipse
             ry="2.6497605"
             rx="2.6414988"
             cy="788.82556"
             cx="493.13229"
             id="path306478-3"
             style="fill:#666766;fill-opacity:1;stroke:#999999;stroke-width:1.27874994;stroke-linejoin:round;stroke-miterlimit:10.30000019;stroke-dasharray:none;stroke-opacity:1" />
        </g>
        <g
           id="g50478-8-8"
           transform="matrix(0,1.0666666,-1.0666666,0,869.3036,-765.00289)">
          <ellipse
             ry="2.6497605"
             rx="2.6414988"
             cy="788.82556"
             cx="498.37476"
             id="path306478-2-9-3"
             style="fill:#999999;fill-opacity:1;stroke:#999999;stroke-width:1.27874994;stroke-linejoin:round;stroke-miterlimit:10.30000019;stroke-dasharray:none;stroke-opacity:1" />
          <rect
             y="785.53265"
             x="493.03296"
             height="6.5699372"
             width="5.4601502"
             id="rect50473-3-7"
             style="opacity:1;fill:#999999;fill-opacity:1;stroke:none;stroke-width:1.25270295;stroke-linejoin:round;stroke-miterlimit:10.30000019;stroke-dasharray:none;stroke-opacity:1" />
          <ellipse
             ry="2.6497605"
             rx="2.6414988"
             cy="788.82556"
             cx="493.13229"
             id="path306478-8-7"
             style="fill:#666766;fill-opacity:1;stroke:#999999;stroke-width:1.27874994;stroke-linejoin:round;stroke-miterlimit:10.30000019;stroke-dasharray:none;stroke-opacity:1" />
        </g>
        <g
           id="g50478-7-77"
           transform="matrix(0,1.0666666,-1.0666666,0,878.91311,-765.00291)">
          <ellipse
             ry="2.6497605"
             rx="2.6414988"
             cy="788.82556"
             cx="498.37476"
             id="path306478-2-2-8"
             style="fill:#999999;fill-opacity:1;stroke:#999999;stroke-width:1.27874994;stroke-linejoin:round;stroke-miterlimit:10.30000019;stroke-dasharray:none;stroke-opacity:1" />
          <rect
             y="785.53265"
             x="493.03296"
             height="6.5699372"
             width="5.4601502"
             id="rect50473-2-76"
             style="opacity:1;fill:#999999;fill-opacity:1;stroke:none;stroke-width:1.25270295;stroke-linejoin:round;stroke-miterlimit:10.30000019;stroke-dasharray:none;stroke-opacity:1" />
          <ellipse
             ry="2.6497605"
             rx="2.6414988"
             cy="788.82556"
             cx="493.13229"
             id="path306478-6-28"
             style="fill:#666766;fill-opacity:1;stroke:#999999;stroke-width:1.27874994;stroke-linejoin:round;stroke-miterlimit:10.30000019;stroke-dasharray:none;stroke-opacity:1" />
        </g>
        <g
           id="g50478-7-4-8"
           transform="matrix(0,1.0666666,-1.0666666,0,888.50957,-765.00289)">
          <ellipse
             ry="2.6497605"
             rx="2.6414988"
             cy="788.82556"
             cx="498.37476"
             id="path306478-2-2-6-5"
             style="fill:#999999;fill-opacity:1;stroke:#999999;stroke-width:1.27874994;stroke-linejoin:round;stroke-miterlimit:10.30000019;stroke-dasharray:none;stroke-opacity:1" />
          <rect
             y="785.53265"
             x="493.03296"
             height="6.5699372"
             width="5.4601502"
             id="rect50473-2-8-9"
             style="opacity:1;fill:#999999;fill-opacity:1;stroke:none;stroke-width:1.25270295;stroke-linejoin:round;stroke-miterlimit:10.30000019;stroke-dasharray:none;stroke-opacity:1" />
          <ellipse
             ry="2.6497605"
             rx="2.6414988"
             cy="788.82556"
             cx="493.13229"
             id="path306478-6-6-5"
             style="fill:#666766;fill-opacity:1;stroke:#999999;stroke-width:1.27874994;stroke-linejoin:round;stroke-miterlimit:10.30000019;stroke-dasharray:none;stroke-opacity:1" />
        </g>
        <g
           id="g50478-7-7-3"
           transform="matrix(0,1.0666666,-1.0666666,0,898.23229,-765.0029)">
          <ellipse
             ry="2.6497605"
             rx="2.6414988"
             cy="788.82556"
             cx="498.37476"
             id="path306478-2-2-1-0"
             style="fill:#999999;fill-opacity:1;stroke:#999999;stroke-width:1.27874994;stroke-linejoin:round;stroke-miterlimit:10.30000019;stroke-dasharray:none;stroke-opacity:1" />
          <rect
             y="785.53265"
             x="493.03296"
             height="6.5699372"
             width="5.4601502"
             id="rect50473-2-6-5"
             style="opacity:1;fill:#999999;fill-opacity:1;stroke:none;stroke-width:1.25270295;stroke-linejoin:round;stroke-miterlimit:10.30000019;stroke-dasharray:none;stroke-opacity:1" />
          <ellipse
             ry="2.6497605"
             rx="2.6414988"
             cy="788.82556"
             cx="493.13229"
             id="path306478-6-9-1"
             style="fill:#666766;fill-opacity:1;stroke:#999999;stroke-width:1.27874994;stroke-linejoin:round;stroke-miterlimit:10.30000019;stroke-dasharray:none;stroke-opacity:1" />
        </g>
      </g>
      <g
         transform="matrix(-0.26458333,0,0,0.26458333,-543.08579,-53.414045)"
         id="g16495"
         style="display:inline;fill:none;stroke-linecap:round;stroke-linejoin:round;enable-background:new">
        <g
           id="g51384"
           transform="matrix(1.0666666,0,0,1.0666666,-472.53274,-1104.3834)">
          <ellipse
             transform="rotate(-90)"
             ry="2.6497605"
             rx="2.6414988"
             cy="412.3848"
             cx="-812.33032"
             id="path306478-2-30"
             style="fill:#999999;fill-opacity:1;stroke:#999999;stroke-width:1.27874994;stroke-linejoin:round;stroke-miterlimit:10.30000019;stroke-dasharray:none;stroke-opacity:1" />
          <rect
             transform="rotate(-90)"
             y="409.09982"
             x="-817.55377"
             height="6.5699372"
             width="5.4601502"
             id="rect50473-28"
             style="opacity:1;fill:#999999;fill-opacity:1;stroke:none;stroke-width:1.25270295;stroke-linejoin:round;stroke-miterlimit:10.30000019;stroke-dasharray:none;stroke-opacity:1" />
          <ellipse
             transform="rotate(-90)"
             ry="2.6497605"
             rx="2.6414988"
             cy="412.3848"
             cx="-817.23889"
             id="path306478-2-25"
             style="fill:#999999;fill-opacity:1;stroke:#999999;stroke-width:1.27874982;stroke-linejoin:round;stroke-miterlimit:10.30000019;stroke-dasharray:none;stroke-opacity:1" />
          <ellipse
             transform="rotate(-90)"
             ry="2.6497605"
             rx="2.6414988"
             cy="412.3848"
             cx="-814.73175"
             id="path306478-70"
             style="fill:#666766;fill-opacity:1;stroke:#999999;stroke-width:1.27874994;stroke-linejoin:round;stroke-miterlimit:10.30000019;stroke-dasharray:none;stroke-opacity:1" />
        </g>
        <g
           transform="matrix(1.0666666,0,0,1.0666666,-463.00161,-1104.3834)"
           id="g51384-0">
          <ellipse
             transform="rotate(-90)"
             ry="2.6497605"
             rx="2.6414988"
             cy="412.3848"
             cx="-812.33032"
             id="path306478-2-1"
             style="fill:#999999;fill-opacity:1;stroke:#999999;stroke-width:1.27874994;stroke-linejoin:round;stroke-miterlimit:10.30000019;stroke-dasharray:none;stroke-opacity:1" />
          <rect
             transform="rotate(-90)"
             y="409.09982"
             x="-817.55377"
             height="6.5699372"
             width="5.4601502"
             id="rect50473-5"
             style="opacity:1;fill:#999999;fill-opacity:1;stroke:none;stroke-width:1.25270295;stroke-linejoin:round;stroke-miterlimit:10.30000019;stroke-dasharray:none;stroke-opacity:1" />
          <ellipse
             transform="rotate(-90)"
             ry="2.6497605"
             rx="2.6414988"
             cy="412.3848"
             cx="-817.23889"
             id="path306478-2-25-4"
             style="fill:#999999;fill-opacity:1;stroke:#999999;stroke-width:1.27874982;stroke-linejoin:round;stroke-miterlimit:10.30000019;stroke-dasharray:none;stroke-opacity:1" />
          <ellipse
             transform="rotate(-90)"
             ry="2.6497605"
             rx="2.6414988"
             cy="412.3848"
             cx="-814.73175"
             id="path306478-63"
             style="fill:#666766;fill-opacity:1;stroke:#999999;stroke-width:1.27874994;stroke-linejoin:round;stroke-miterlimit:10.30000019;stroke-dasharray:none;stroke-opacity:1" />
        </g>
      </g>
      <g
         transform="matrix(-0.26458333,0,0,0.26458333,-496.35948,-69.61526)"
         id="g16872"
         style="display:inline;fill:none;stroke-linecap:round;stroke-linejoin:round;enable-background:new">
        <g
           transform="matrix(1.0666666,0,0,1.0666666,-468.21834,-824.56154)"
           id="g51384-3">
          <ellipse
             transform="rotate(-90)"
             ry="2.6497605"
             rx="2.6414988"
             cy="412.3848"
             cx="-812.33032"
             id="path306478-2-98"
             style="fill:#999999;fill-opacity:1;stroke:#999999;stroke-width:1.27874994;stroke-linejoin:round;stroke-miterlimit:10.30000019;stroke-dasharray:none;stroke-opacity:1" />
          <rect
             transform="rotate(-90)"
             y="409.09982"
             x="-817.55377"
             height="6.5699372"
             width="5.4601502"
             id="rect50473-9"
             style="opacity:1;fill:#999999;fill-opacity:1;stroke:none;stroke-width:1.25270295;stroke-linejoin:round;stroke-miterlimit:10.30000019;stroke-dasharray:none;stroke-opacity:1" />
          <ellipse
             transform="rotate(-90)"
             ry="2.6497605"
             rx="2.6414988"
             cy="412.3848"
             cx="-817.23889"
             id="path306478-2-25-3"
             style="fill:#999999;fill-opacity:1;stroke:#999999;stroke-width:1.27874982;stroke-linejoin:round;stroke-miterlimit:10.30000019;stroke-dasharray:none;stroke-opacity:1" />
          <ellipse
             transform="rotate(-90)"
             ry="2.6497605"
             rx="2.6414988"
             cy="412.3848"
             cx="-814.73175"
             id="path306478-64"
             style="fill:#666766;fill-opacity:1;stroke:#999999;stroke-width:1.27874994;stroke-linejoin:round;stroke-miterlimit:10.30000019;stroke-dasharray:none;stroke-opacity:1" />
        </g>
        <g
           transform="matrix(1.0666666,0,0,1.0666666,-468.21834,-787.07883)"
           id="g51384-14">
          <ellipse
             transform="rotate(-90)"
             ry="2.6497605"
             rx="2.6414988"
             cy="412.3848"
             cx="-812.33032"
             id="path306478-2-18"
             style="fill:#999999;fill-opacity:1;stroke:#999999;stroke-width:1.27874994;stroke-linejoin:round;stroke-miterlimit:10.30000019;stroke-dasharray:none;stroke-opacity:1" />
          <rect
             transform="rotate(-90)"
             y="409.09982"
             x="-817.55377"
             height="6.5699372"
             width="5.4601502"
             id="rect50473-73"
             style="opacity:1;fill:#999999;fill-opacity:1;stroke:none;stroke-width:1.25270295;stroke-linejoin:round;stroke-miterlimit:10.30000019;stroke-dasharray:none;stroke-opacity:1" />
          <ellipse
             transform="rotate(-90)"
             ry="2.6497605"
             rx="2.6414988"
             cy="412.3848"
             cx="-817.23889"
             id="path306478-2-25-2"
             style="fill:#999999;fill-opacity:1;stroke:#999999;stroke-width:1.27874982;stroke-linejoin:round;stroke-miterlimit:10.30000019;stroke-dasharray:none;stroke-opacity:1" />
          <ellipse
             transform="rotate(-90)"
             ry="2.6497605"
             rx="2.6414988"
             cy="412.3848"
             cx="-814.73175"
             id="path306478-4"
             style="fill:#666766;fill-opacity:1;stroke:#999999;stroke-width:1.27874994;stroke-linejoin:round;stroke-miterlimit:10.30000019;stroke-dasharray:none;stroke-opacity:1" />
        </g>
      </g>
      <g
         transform="matrix(-0.26458333,0,0,0.26458333,-496.35948,-69.61526)"
         id="g16679"
         style="display:inline;fill:none;stroke-linecap:round;stroke-linejoin:round;enable-background:new">
        <g
           transform="matrix(0,1.0666666,-1.0666666,0,1067.8591,-545.96706)"
           id="g51384-5">
          <ellipse
             transform="rotate(-90)"
             ry="2.6497605"
             rx="2.6414988"
             cy="412.3848"
             cx="-812.33032"
             id="path306478-2-6"
             style="fill:#999999;fill-opacity:1;stroke:#999999;stroke-width:1.27874994;stroke-linejoin:round;stroke-miterlimit:10.30000019;stroke-dasharray:none;stroke-opacity:1" />
          <rect
             transform="rotate(-90)"
             y="409.09982"
             x="-817.55377"
             height="6.5699372"
             width="5.4601502"
             id="rect50473-7"
             style="opacity:1;fill:#999999;fill-opacity:1;stroke:none;stroke-width:1.25270295;stroke-linejoin:round;stroke-miterlimit:10.30000019;stroke-dasharray:none;stroke-opacity:1" />
          <ellipse
             transform="rotate(-90)"
             ry="2.6497605"
             rx="2.6414988"
             cy="412.3848"
             cx="-817.23889"
             id="path306478-2-25-5"
             style="fill:#999999;fill-opacity:1;stroke:#999999;stroke-width:1.27874982;stroke-linejoin:round;stroke-miterlimit:10.30000019;stroke-dasharray:none;stroke-opacity:1" />
          <ellipse
             transform="rotate(-90)"
             ry="2.6497605"
             rx="2.6414988"
             cy="412.3848"
             cx="-814.73175"
             id="path306478-3-3"
             style="fill:#666766;fill-opacity:1;stroke:#999999;stroke-width:1.27874994;stroke-linejoin:round;stroke-miterlimit:10.30000019;stroke-dasharray:none;stroke-opacity:1" />
        </g>
        <g
           transform="matrix(0,1.0666666,-1.0666666,0,1067.8591,-527.93912)"
           id="g51384-2">
          <ellipse
             transform="rotate(-90)"
             ry="2.6497605"
             rx="2.6414988"
             cy="412.3848"
             cx="-812.33032"
             id="path306478-2-3-4"
             style="fill:#999999;fill-opacity:1;stroke:#999999;stroke-width:1.27874994;stroke-linejoin:round;stroke-miterlimit:10.30000019;stroke-dasharray:none;stroke-opacity:1" />
          <rect
             transform="rotate(-90)"
             y="409.09982"
             x="-817.55377"
             height="6.5699372"
             width="5.4601502"
             id="rect50473-77"
             style="opacity:1;fill:#999999;fill-opacity:1;stroke:none;stroke-width:1.25270295;stroke-linejoin:round;stroke-miterlimit:10.30000019;stroke-dasharray:none;stroke-opacity:1" />
          <ellipse
             transform="rotate(-90)"
             ry="2.6497605"
             rx="2.6414988"
             cy="412.3848"
             cx="-817.23889"
             id="path306478-2-25-8"
             style="fill:#999999;fill-opacity:1;stroke:#999999;stroke-width:1.27874982;stroke-linejoin:round;stroke-miterlimit:10.30000019;stroke-dasharray:none;stroke-opacity:1" />
          <ellipse
             transform="rotate(-90)"
             ry="2.6497605"
             rx="2.6414988"
             cy="412.3848"
             cx="-814.73175"
             id="path306478-5"
             style="fill:#666766;fill-opacity:1;stroke:#999999;stroke-width:1.27874994;stroke-linejoin:round;stroke-miterlimit:10.30000019;stroke-dasharray:none;stroke-opacity:1" />
        </g>
        <g
           transform="matrix(0,1.0666666,-1.0666666,0,1020.3591,-527.93912)"
           id="g51384-1">
          <ellipse
             transform="rotate(-90)"
             ry="2.6497605"
             rx="2.6414988"
             cy="412.3848"
             cx="-812.33032"
             id="path306478-2-17"
             style="fill:#999999;fill-opacity:1;stroke:#999999;stroke-width:1.27874994;stroke-linejoin:round;stroke-miterlimit:10.30000019;stroke-dasharray:none;stroke-opacity:1" />
          <rect
             transform="rotate(-90)"
             y="409.09982"
             x="-817.55377"
             height="6.5699372"
             width="5.4601502"
             id="rect50473-0"
             style="opacity:1;fill:#999999;fill-opacity:1;stroke:none;stroke-width:1.25270295;stroke-linejoin:round;stroke-miterlimit:10.30000019;stroke-dasharray:none;stroke-opacity:1" />
          <ellipse
             transform="rotate(-90)"
             ry="2.6497605"
             rx="2.6414988"
             cy="412.3848"
             cx="-817.23889"
             id="path306478-2-25-7"
             style="fill:#999999;fill-opacity:1;stroke:#999999;stroke-width:1.27874982;stroke-linejoin:round;stroke-miterlimit:10.30000019;stroke-dasharray:none;stroke-opacity:1" />
          <ellipse
             transform="rotate(-90)"
             ry="2.6497605"
             rx="2.6414988"
             cy="412.3848"
             cx="-814.73175"
             id="path306478-9"
             style="fill:#666766;fill-opacity:1;stroke:#999999;stroke-width:1.27874994;stroke-linejoin:round;stroke-miterlimit:10.30000019;stroke-dasharray:none;stroke-opacity:1" />
        </g>
        <g
           transform="matrix(0,1.0666666,-1.0666666,0,1020.3591,-545.96706)"
           id="g51384-6">
          <ellipse
             transform="rotate(-90)"
             ry="2.6497605"
             rx="2.6414988"
             cy="412.3848"
             cx="-812.33032"
             id="path306478-2-8"
             style="fill:#999999;fill-opacity:1;stroke:#999999;stroke-width:1.27874994;stroke-linejoin:round;stroke-miterlimit:10.30000019;stroke-dasharray:none;stroke-opacity:1" />
          <rect
             transform="rotate(-90)"
             y="409.09982"
             x="-817.55377"
             height="6.5699372"
             width="5.4601502"
             id="rect50473-24"
             style="opacity:1;fill:#999999;fill-opacity:1;stroke:none;stroke-width:1.25270295;stroke-linejoin:round;stroke-miterlimit:10.30000019;stroke-dasharray:none;stroke-opacity:1" />
          <ellipse
             transform="rotate(-90)"
             ry="2.6497605"
             rx="2.6414988"
             cy="412.3848"
             cx="-817.23889"
             id="path306478-2-25-6"
             style="fill:#999999;fill-opacity:1;stroke:#999999;stroke-width:1.27874982;stroke-linejoin:round;stroke-miterlimit:10.30000019;stroke-dasharray:none;stroke-opacity:1" />
          <ellipse
             transform="rotate(-90)"
             ry="2.6497605"
             rx="2.6414988"
             cy="412.3848"
             cx="-814.73175"
             id="path306478-97"
             style="fill:#666766;fill-opacity:1;stroke:#999999;stroke-width:1.27874994;stroke-linejoin:round;stroke-miterlimit:10.30000019;stroke-dasharray:none;stroke-opacity:1" />
        </g>
        <circle
           style="opacity:0.97000002;fill:#ffffff;fill-opacity:1;stroke:none;stroke-width:4.31570864;stroke-linejoin:round;stroke-miterlimit:4;stroke-dasharray:none;stroke-opacity:1"
           id="path16640"
           cx="173.75858"
           cy="-114.14178"
           r="4" />
        <circle
           style="display:inline;opacity:0.97000002;fill:#ffffff;fill-opacity:1;stroke:none;stroke-width:4.31570864;stroke-linecap:round;stroke-linejoin:round;stroke-miterlimit:4;stroke-dasharray:none;stroke-opacity:1"
           id="path16640-2"
           cx="173.75858"
           cy="-79.846375"
           r="4" />
      </g>
      <g
         id="g16679-1"
         style="display:inline;fill:none;stroke-linecap:round;stroke-linejoin:round;enable-background:new"
         transform="matrix(-0.26458333,0,0,0.26458333,-496.39971,-44.479844)">
        <g
           transform="matrix(0,1.0666666,-1.0666666,0,1067.8591,-545.96706)"
           id="g51384-5-2">
          <ellipse
             transform="rotate(-90)"
             ry="2.6497605"
             rx="2.6414988"
             cy="412.3848"
             cx="-812.33032"
             id="path306478-2-6-3"
             style="fill:#999999;fill-opacity:1;stroke:#999999;stroke-width:1.27874994;stroke-linejoin:round;stroke-miterlimit:10.30000019;stroke-dasharray:none;stroke-opacity:1" />
          <rect
             transform="rotate(-90)"
             y="409.09982"
             x="-817.55377"
             height="6.5699372"
             width="5.4601502"
             id="rect50473-7-7"
             style="opacity:1;fill:#999999;fill-opacity:1;stroke:none;stroke-width:1.25270295;stroke-linejoin:round;stroke-miterlimit:10.30000019;stroke-dasharray:none;stroke-opacity:1" />
          <ellipse
             transform="rotate(-90)"
             ry="2.6497605"
             rx="2.6414988"
             cy="412.3848"
             cx="-817.23889"
             id="path306478-2-25-5-6"
             style="fill:#999999;fill-opacity:1;stroke:#999999;stroke-width:1.27874982;stroke-linejoin:round;stroke-miterlimit:10.30000019;stroke-dasharray:none;stroke-opacity:1" />
          <ellipse
             transform="rotate(-90)"
             ry="2.6497605"
             rx="2.6414988"
             cy="412.3848"
             cx="-814.73175"
             id="path306478-3-3-2"
             style="fill:#666766;fill-opacity:1;stroke:#999999;stroke-width:1.27874994;stroke-linejoin:round;stroke-miterlimit:10.30000019;stroke-dasharray:none;stroke-opacity:1" />
        </g>
        <g
           transform="matrix(0,1.0666666,-1.0666666,0,1067.8591,-527.93912)"
           id="g51384-2-0">
          <ellipse
             transform="rotate(-90)"
             ry="2.6497605"
             rx="2.6414988"
             cy="412.3848"
             cx="-812.33032"
             id="path306478-2-3-4-5"
             style="fill:#999999;fill-opacity:1;stroke:#999999;stroke-width:1.27874994;stroke-linejoin:round;stroke-miterlimit:10.30000019;stroke-dasharray:none;stroke-opacity:1" />
          <rect
             transform="rotate(-90)"
             y="409.09982"
             x="-817.55377"
             height="6.5699372"
             width="5.4601502"
             id="rect50473-77-8"
             style="opacity:1;fill:#999999;fill-opacity:1;stroke:none;stroke-width:1.25270295;stroke-linejoin:round;stroke-miterlimit:10.30000019;stroke-dasharray:none;stroke-opacity:1" />
          <ellipse
             transform="rotate(-90)"
             ry="2.6497605"
             rx="2.6414988"
             cy="412.3848"
             cx="-817.23889"
             id="path306478-2-25-8-6"
             style="fill:#999999;fill-opacity:1;stroke:#999999;stroke-width:1.27874982;stroke-linejoin:round;stroke-miterlimit:10.30000019;stroke-dasharray:none;stroke-opacity:1" />
          <ellipse
             transform="rotate(-90)"
             ry="2.6497605"
             rx="2.6414988"
             cy="412.3848"
             cx="-814.73175"
             id="path306478-5-0"
             style="fill:#666766;fill-opacity:1;stroke:#999999;stroke-width:1.27874994;stroke-linejoin:round;stroke-miterlimit:10.30000019;stroke-dasharray:none;stroke-opacity:1" />
        </g>
        <g
           transform="matrix(0,1.0666666,-1.0666666,0,1020.3591,-527.93912)"
           id="g51384-1-4">
          <ellipse
             transform="rotate(-90)"
             ry="2.6497605"
             rx="2.6414988"
             cy="412.3848"
             cx="-812.33032"
             id="path306478-2-17-0"
             style="fill:#999999;fill-opacity:1;stroke:#999999;stroke-width:1.27874994;stroke-linejoin:round;stroke-miterlimit:10.30000019;stroke-dasharray:none;stroke-opacity:1" />
          <rect
             transform="rotate(-90)"
             y="409.09982"
             x="-817.55377"
             height="6.5699372"
             width="5.4601502"
             id="rect50473-0-4"
             style="opacity:1;fill:#999999;fill-opacity:1;stroke:none;stroke-width:1.25270295;stroke-linejoin:round;stroke-miterlimit:10.30000019;stroke-dasharray:none;stroke-opacity:1" />
          <ellipse
             transform="rotate(-90)"
             ry="2.6497605"
             rx="2.6414988"
             cy="412.3848"
             cx="-817.23889"
             id="path306478-2-25-7-1"
             style="fill:#999999;fill-opacity:1;stroke:#999999;stroke-width:1.27874982;stroke-linejoin:round;stroke-miterlimit:10.30000019;stroke-dasharray:none;stroke-opacity:1" />
          <ellipse
             transform="rotate(-90)"
             ry="2.6497605"
             rx="2.6414988"
             cy="412.3848"
             cx="-814.73175"
             id="path306478-9-0"
             style="fill:#666766;fill-opacity:1;stroke:#999999;stroke-width:1.27874994;stroke-linejoin:round;stroke-miterlimit:10.30000019;stroke-dasharray:none;stroke-opacity:1" />
        </g>
        <g
           transform="matrix(0,1.0666666,-1.0666666,0,1020.3591,-545.96706)"
           id="g51384-6-0">
          <ellipse
             transform="rotate(-90)"
             ry="2.6497605"
             rx="2.6414988"
             cy="412.3848"
             cx="-812.33032"
             id="path306478-2-8-7"
             style="fill:#999999;fill-opacity:1;stroke:#999999;stroke-width:1.27874994;stroke-linejoin:round;stroke-miterlimit:10.30000019;stroke-dasharray:none;stroke-opacity:1" />
          <rect
             transform="rotate(-90)"
             y="409.09982"
             x="-817.55377"
             height="6.5699372"
             width="5.4601502"
             id="rect50473-24-0"
             style="opacity:1;fill:#999999;fill-opacity:1;stroke:none;stroke-width:1.25270295;stroke-linejoin:round;stroke-miterlimit:10.30000019;stroke-dasharray:none;stroke-opacity:1" />
          <ellipse
             transform="rotate(-90)"
             ry="2.6497605"
             rx="2.6414988"
             cy="412.3848"
             cx="-817.23889"
             id="path306478-2-25-6-9"
             style="fill:#999999;fill-opacity:1;stroke:#999999;stroke-width:1.27874982;stroke-linejoin:round;stroke-miterlimit:10.30000019;stroke-dasharray:none;stroke-opacity:1" />
          <ellipse
             transform="rotate(-90)"
             ry="2.6497605"
             rx="2.6414988"
             cy="412.3848"
             cx="-814.73175"
             id="path306478-97-8"
             style="fill:#666766;fill-opacity:1;stroke:#999999;stroke-width:1.27874994;stroke-linejoin:round;stroke-miterlimit:10.30000019;stroke-dasharray:none;stroke-opacity:1" />
        </g>
        <circle
           style="opacity:0.97000002;fill:#ffffff;fill-opacity:1;stroke:none;stroke-width:4.31570864;stroke-linejoin:round;stroke-miterlimit:4;stroke-dasharray:none;stroke-opacity:1"
           id="path16640-21"
           cx="173.75858"
           cy="-114.14178"
           r="4" />
        <circle
           style="display:inline;opacity:0.97000002;fill:#ffffff;fill-opacity:1;stroke:none;stroke-width:4.31570864;stroke-linecap:round;stroke-linejoin:round;stroke-miterlimit:4;stroke-dasharray:none;stroke-opacity:1"
           id="path16640-2-9"
           cx="173.75858"
           cy="-79.846375"
           r="4" />
      </g>
      <g
         id="g16679-16"
         style="display:inline;fill:none;stroke-linecap:round;stroke-linejoin:round;enable-background:new"
         transform="matrix(-0.26458333,0,0,0.26458333,-451.11574,-59.510823)">
        <g
           transform="matrix(0,1.0666666,-1.0666666,0,1067.8591,-545.96706)"
           id="g51384-5-4">
          <ellipse
             transform="rotate(-90)"
             ry="2.6497605"
             rx="2.6414988"
             cy="412.3848"
             cx="-812.33032"
             id="path306478-2-6-4"
             style="fill:#999999;fill-opacity:1;stroke:#999999;stroke-width:1.27874994;stroke-linejoin:round;stroke-miterlimit:10.30000019;stroke-dasharray:none;stroke-opacity:1" />
          <rect
             transform="rotate(-90)"
             y="409.09982"
             x="-817.55377"
             height="6.5699372"
             width="5.4601502"
             id="rect50473-7-9"
             style="opacity:1;fill:#999999;fill-opacity:1;stroke:none;stroke-width:1.25270295;stroke-linejoin:round;stroke-miterlimit:10.30000019;stroke-dasharray:none;stroke-opacity:1" />
          <ellipse
             transform="rotate(-90)"
             ry="2.6497605"
             rx="2.6414988"
             cy="412.3848"
             cx="-817.23889"
             id="path306478-2-25-5-3"
             style="fill:#999999;fill-opacity:1;stroke:#999999;stroke-width:1.27874982;stroke-linejoin:round;stroke-miterlimit:10.30000019;stroke-dasharray:none;stroke-opacity:1" />
          <ellipse
             transform="rotate(-90)"
             ry="2.6497605"
             rx="2.6414988"
             cy="412.3848"
             cx="-814.73175"
             id="path306478-3-3-6"
             style="fill:#666766;fill-opacity:1;stroke:#999999;stroke-width:1.27874994;stroke-linejoin:round;stroke-miterlimit:10.30000019;stroke-dasharray:none;stroke-opacity:1" />
        </g>
        <g
           transform="matrix(0,1.0666666,-1.0666666,0,1067.8591,-527.93912)"
           id="g51384-2-1">
          <ellipse
             transform="rotate(-90)"
             ry="2.6497605"
             rx="2.6414988"
             cy="412.3848"
             cx="-812.33032"
             id="path306478-2-3-4-7"
             style="fill:#999999;fill-opacity:1;stroke:#999999;stroke-width:1.27874994;stroke-linejoin:round;stroke-miterlimit:10.30000019;stroke-dasharray:none;stroke-opacity:1" />
          <rect
             transform="rotate(-90)"
             y="409.09982"
             x="-817.55377"
             height="6.5699372"
             width="5.4601502"
             id="rect50473-77-0"
             style="opacity:1;fill:#999999;fill-opacity:1;stroke:none;stroke-width:1.25270295;stroke-linejoin:round;stroke-miterlimit:10.30000019;stroke-dasharray:none;stroke-opacity:1" />
          <ellipse
             transform="rotate(-90)"
             ry="2.6497605"
             rx="2.6414988"
             cy="412.3848"
             cx="-817.23889"
             id="path306478-2-25-8-8"
             style="fill:#999999;fill-opacity:1;stroke:#999999;stroke-width:1.27874982;stroke-linejoin:round;stroke-miterlimit:10.30000019;stroke-dasharray:none;stroke-opacity:1" />
          <ellipse
             transform="rotate(-90)"
             ry="2.6497605"
             rx="2.6414988"
             cy="412.3848"
             cx="-814.73175"
             id="path306478-5-3"
             style="fill:#666766;fill-opacity:1;stroke:#999999;stroke-width:1.27874994;stroke-linejoin:round;stroke-miterlimit:10.30000019;stroke-dasharray:none;stroke-opacity:1" />
        </g>
        <g
           transform="matrix(0,1.0666666,-1.0666666,0,1020.3591,-527.93912)"
           id="g51384-1-40">
          <ellipse
             transform="rotate(-90)"
             ry="2.6497605"
             rx="2.6414988"
             cy="412.3848"
             cx="-812.33032"
             id="path306478-2-17-04"
             style="fill:#999999;fill-opacity:1;stroke:#999999;stroke-width:1.27874994;stroke-linejoin:round;stroke-miterlimit:10.30000019;stroke-dasharray:none;stroke-opacity:1" />
          <rect
             transform="rotate(-90)"
             y="409.09982"
             x="-817.55377"
             height="6.5699372"
             width="5.4601502"
             id="rect50473-0-9"
             style="opacity:1;fill:#999999;fill-opacity:1;stroke:none;stroke-width:1.25270295;stroke-linejoin:round;stroke-miterlimit:10.30000019;stroke-dasharray:none;stroke-opacity:1" />
          <ellipse
             transform="rotate(-90)"
             ry="2.6497605"
             rx="2.6414988"
             cy="412.3848"
             cx="-817.23889"
             id="path306478-2-25-7-18"
             style="fill:#999999;fill-opacity:1;stroke:#999999;stroke-width:1.27874982;stroke-linejoin:round;stroke-miterlimit:10.30000019;stroke-dasharray:none;stroke-opacity:1" />
          <ellipse
             transform="rotate(-90)"
             ry="2.6497605"
             rx="2.6414988"
             cy="412.3848"
             cx="-814.73175"
             id="path306478-9-9"
             style="fill:#666766;fill-opacity:1;stroke:#999999;stroke-width:1.27874994;stroke-linejoin:round;stroke-miterlimit:10.30000019;stroke-dasharray:none;stroke-opacity:1" />
        </g>
        <g
           transform="matrix(0,1.0666666,-1.0666666,0,1020.3591,-545.96706)"
           id="g51384-6-7">
          <ellipse
             transform="rotate(-90)"
             ry="2.6497605"
             rx="2.6414988"
             cy="412.3848"
             cx="-812.33032"
             id="path306478-2-8-1"
             style="fill:#999999;fill-opacity:1;stroke:#999999;stroke-width:1.27874994;stroke-linejoin:round;stroke-miterlimit:10.30000019;stroke-dasharray:none;stroke-opacity:1" />
          <rect
             transform="rotate(-90)"
             y="409.09982"
             x="-817.55377"
             height="6.5699372"
             width="5.4601502"
             id="rect50473-24-1"
             style="opacity:1;fill:#999999;fill-opacity:1;stroke:none;stroke-width:1.25270295;stroke-linejoin:round;stroke-miterlimit:10.30000019;stroke-dasharray:none;stroke-opacity:1" />
          <ellipse
             transform="rotate(-90)"
             ry="2.6497605"
             rx="2.6414988"
             cy="412.3848"
             cx="-817.23889"
             id="path306478-2-25-6-98"
             style="fill:#999999;fill-opacity:1;stroke:#999999;stroke-width:1.27874982;stroke-linejoin:round;stroke-miterlimit:10.30000019;stroke-dasharray:none;stroke-opacity:1" />
          <ellipse
             transform="rotate(-90)"
             ry="2.6497605"
             rx="2.6414988"
             cy="412.3848"
             cx="-814.73175"
             id="path306478-97-3"
             style="fill:#666766;fill-opacity:1;stroke:#999999;stroke-width:1.27874994;stroke-linejoin:round;stroke-miterlimit:10.30000019;stroke-dasharray:none;stroke-opacity:1" />
        </g>
        <circle
           style="opacity:0.97000002;fill:#ffffff;fill-opacity:1;stroke:none;stroke-width:4.31570864;stroke-linejoin:round;stroke-miterlimit:4;stroke-dasharray:none;stroke-opacity:1"
           id="path16640-8"
           cx="173.75858"
           cy="-114.14178"
           r="4" />
        <circle
           style="display:inline;opacity:0.97000002;fill:#ffffff;fill-opacity:1;stroke:none;stroke-width:4.31570864;stroke-linecap:round;stroke-linejoin:round;stroke-miterlimit:4;stroke-dasharray:none;stroke-opacity:1"
           id="path16640-2-8"
           cx="173.75858"
           cy="-79.846375"
           r="4" />
      </g>
      <g
         id="g16679-7"
         style="display:inline;fill:none;stroke-linecap:round;stroke-linejoin:round;enable-background:new"
         transform="matrix(-0.26458333,0,0,0.26458333,-426.02054,-59.510823)">
        <g
           transform="matrix(0,1.0666666,-1.0666666,0,1067.8591,-545.96706)"
           id="g51384-5-0">
          <ellipse
             transform="rotate(-90)"
             ry="2.6497605"
             rx="2.6414988"
             cy="412.3848"
             cx="-812.33032"
             id="path306478-2-6-7"
             style="fill:#999999;fill-opacity:1;stroke:#999999;stroke-width:1.27874994;stroke-linejoin:round;stroke-miterlimit:10.30000019;stroke-dasharray:none;stroke-opacity:1" />
          <rect
             transform="rotate(-90)"
             y="409.09982"
             x="-817.55377"
             height="6.5699372"
             width="5.4601502"
             id="rect50473-7-98"
             style="opacity:1;fill:#999999;fill-opacity:1;stroke:none;stroke-width:1.25270295;stroke-linejoin:round;stroke-miterlimit:10.30000019;stroke-dasharray:none;stroke-opacity:1" />
          <ellipse
             transform="rotate(-90)"
             ry="2.6497605"
             rx="2.6414988"
             cy="412.3848"
             cx="-817.23889"
             id="path306478-2-25-5-4"
             style="fill:#999999;fill-opacity:1;stroke:#999999;stroke-width:1.27874982;stroke-linejoin:round;stroke-miterlimit:10.30000019;stroke-dasharray:none;stroke-opacity:1" />
          <ellipse
             transform="rotate(-90)"
             ry="2.6497605"
             rx="2.6414988"
             cy="412.3848"
             cx="-814.73175"
             id="path306478-3-3-5"
             style="fill:#666766;fill-opacity:1;stroke:#999999;stroke-width:1.27874994;stroke-linejoin:round;stroke-miterlimit:10.30000019;stroke-dasharray:none;stroke-opacity:1" />
        </g>
        <g
           transform="matrix(0,1.0666666,-1.0666666,0,1067.8591,-527.93912)"
           id="g51384-2-8">
          <ellipse
             transform="rotate(-90)"
             ry="2.6497605"
             rx="2.6414988"
             cy="412.3848"
             cx="-812.33032"
             id="path306478-2-3-4-9"
             style="fill:#999999;fill-opacity:1;stroke:#999999;stroke-width:1.27874994;stroke-linejoin:round;stroke-miterlimit:10.30000019;stroke-dasharray:none;stroke-opacity:1" />
          <rect
             transform="rotate(-90)"
             y="409.09982"
             x="-817.55377"
             height="6.5699372"
             width="5.4601502"
             id="rect50473-77-2"
             style="opacity:1;fill:#999999;fill-opacity:1;stroke:none;stroke-width:1.25270295;stroke-linejoin:round;stroke-miterlimit:10.30000019;stroke-dasharray:none;stroke-opacity:1" />
          <ellipse
             transform="rotate(-90)"
             ry="2.6497605"
             rx="2.6414988"
             cy="412.3848"
             cx="-817.23889"
             id="path306478-2-25-8-1"
             style="fill:#999999;fill-opacity:1;stroke:#999999;stroke-width:1.27874982;stroke-linejoin:round;stroke-miterlimit:10.30000019;stroke-dasharray:none;stroke-opacity:1" />
          <ellipse
             transform="rotate(-90)"
             ry="2.6497605"
             rx="2.6414988"
             cy="412.3848"
             cx="-814.73175"
             id="path306478-5-6"
             style="fill:#666766;fill-opacity:1;stroke:#999999;stroke-width:1.27874994;stroke-linejoin:round;stroke-miterlimit:10.30000019;stroke-dasharray:none;stroke-opacity:1" />
        </g>
        <g
           transform="matrix(0,1.0666666,-1.0666666,0,1020.3591,-527.93912)"
           id="g51384-1-49">
          <ellipse
             transform="rotate(-90)"
             ry="2.6497605"
             rx="2.6414988"
             cy="412.3848"
             cx="-812.33032"
             id="path306478-2-17-2"
             style="fill:#999999;fill-opacity:1;stroke:#999999;stroke-width:1.27874994;stroke-linejoin:round;stroke-miterlimit:10.30000019;stroke-dasharray:none;stroke-opacity:1" />
          <rect
             transform="rotate(-90)"
             y="409.09982"
             x="-817.55377"
             height="6.5699372"
             width="5.4601502"
             id="rect50473-0-0"
             style="opacity:1;fill:#999999;fill-opacity:1;stroke:none;stroke-width:1.25270295;stroke-linejoin:round;stroke-miterlimit:10.30000019;stroke-dasharray:none;stroke-opacity:1" />
          <ellipse
             transform="rotate(-90)"
             ry="2.6497605"
             rx="2.6414988"
             cy="412.3848"
             cx="-817.23889"
             id="path306478-2-25-7-12"
             style="fill:#999999;fill-opacity:1;stroke:#999999;stroke-width:1.27874982;stroke-linejoin:round;stroke-miterlimit:10.30000019;stroke-dasharray:none;stroke-opacity:1" />
          <ellipse
             transform="rotate(-90)"
             ry="2.6497605"
             rx="2.6414988"
             cy="412.3848"
             cx="-814.73175"
             id="path306478-9-4"
             style="fill:#666766;fill-opacity:1;stroke:#999999;stroke-width:1.27874994;stroke-linejoin:round;stroke-miterlimit:10.30000019;stroke-dasharray:none;stroke-opacity:1" />
        </g>
        <g
           transform="matrix(0,1.0666666,-1.0666666,0,1020.3591,-545.96706)"
           id="g51384-6-05">
          <ellipse
             transform="rotate(-90)"
             ry="2.6497605"
             rx="2.6414988"
             cy="412.3848"
             cx="-812.33032"
             id="path306478-2-8-2"
             style="fill:#999999;fill-opacity:1;stroke:#999999;stroke-width:1.27874994;stroke-linejoin:round;stroke-miterlimit:10.30000019;stroke-dasharray:none;stroke-opacity:1" />
          <rect
             transform="rotate(-90)"
             y="409.09982"
             x="-817.55377"
             height="6.5699372"
             width="5.4601502"
             id="rect50473-24-14"
             style="opacity:1;fill:#999999;fill-opacity:1;stroke:none;stroke-width:1.25270295;stroke-linejoin:round;stroke-miterlimit:10.30000019;stroke-dasharray:none;stroke-opacity:1" />
          <ellipse
             transform="rotate(-90)"
             ry="2.6497605"
             rx="2.6414988"
             cy="412.3848"
             cx="-817.23889"
             id="path306478-2-25-6-3"
             style="fill:#999999;fill-opacity:1;stroke:#999999;stroke-width:1.27874982;stroke-linejoin:round;stroke-miterlimit:10.30000019;stroke-dasharray:none;stroke-opacity:1" />
          <ellipse
             transform="rotate(-90)"
             ry="2.6497605"
             rx="2.6414988"
             cy="412.3848"
             cx="-814.73175"
             id="path306478-97-4"
             style="fill:#666766;fill-opacity:1;stroke:#999999;stroke-width:1.27874994;stroke-linejoin:round;stroke-miterlimit:10.30000019;stroke-dasharray:none;stroke-opacity:1" />
        </g>
        <circle
           style="opacity:0.97000002;fill:#ffffff;fill-opacity:1;stroke:none;stroke-width:4.31570864;stroke-linejoin:round;stroke-miterlimit:4;stroke-dasharray:none;stroke-opacity:1"
           id="path16640-6"
           cx="173.75858"
           cy="-114.14178"
           r="4" />
        <circle
           style="display:inline;opacity:0.97000002;fill:#ffffff;fill-opacity:1;stroke:none;stroke-width:4.31570864;stroke-linecap:round;stroke-linejoin:round;stroke-miterlimit:4;stroke-dasharray:none;stroke-opacity:1"
           id="path16640-2-3"
           cx="173.75858"
           cy="-79.846375"
           r="4" />
      </g>
      <g
         id="g16872-7"
         style="display:inline;fill:none;stroke-linecap:round;stroke-linejoin:round;enable-background:new"
         transform="matrix(-0.26458333,0,0,0.26458333,-501.25505,-69.717411)">
        <g
           transform="matrix(1.0666666,0,0,1.0666666,-468.21834,-824.56154)"
           id="g51384-3-4">
          <ellipse
             transform="rotate(-90)"
             ry="2.6497605"
             rx="2.6414988"
             cy="412.3848"
             cx="-812.33032"
             id="path306478-2-98-3"
             style="fill:#999999;fill-opacity:1;stroke:#999999;stroke-width:1.27874994;stroke-linejoin:round;stroke-miterlimit:10.30000019;stroke-dasharray:none;stroke-opacity:1" />
          <rect
             transform="rotate(-90)"
             y="409.09982"
             x="-817.55377"
             height="6.5699372"
             width="5.4601502"
             id="rect50473-9-5"
             style="opacity:1;fill:#999999;fill-opacity:1;stroke:none;stroke-width:1.25270295;stroke-linejoin:round;stroke-miterlimit:10.30000019;stroke-dasharray:none;stroke-opacity:1" />
          <ellipse
             transform="rotate(-90)"
             ry="2.6497605"
             rx="2.6414988"
             cy="412.3848"
             cx="-817.23889"
             id="path306478-2-25-3-6"
             style="fill:#999999;fill-opacity:1;stroke:#999999;stroke-width:1.27874982;stroke-linejoin:round;stroke-miterlimit:10.30000019;stroke-dasharray:none;stroke-opacity:1" />
          <ellipse
             transform="rotate(-90)"
             ry="2.6497605"
             rx="2.6414988"
             cy="412.3848"
             cx="-814.73175"
             id="path306478-64-2"
             style="fill:#666766;fill-opacity:1;stroke:#999999;stroke-width:1.27874994;stroke-linejoin:round;stroke-miterlimit:10.30000019;stroke-dasharray:none;stroke-opacity:1" />
        </g>
        <g
           transform="matrix(1.0666666,0,0,1.0666666,-468.21834,-787.07883)"
           id="g51384-14-6">
          <ellipse
             transform="rotate(-90)"
             ry="2.6497605"
             rx="2.6414988"
             cy="412.3848"
             cx="-812.33032"
             id="path306478-2-18-7"
             style="fill:#999999;fill-opacity:1;stroke:#999999;stroke-width:1.27874994;stroke-linejoin:round;stroke-miterlimit:10.30000019;stroke-dasharray:none;stroke-opacity:1" />
          <rect
             transform="rotate(-90)"
             y="409.09982"
             x="-817.55377"
             height="6.5699372"
             width="5.4601502"
             id="rect50473-73-6"
             style="opacity:1;fill:#999999;fill-opacity:1;stroke:none;stroke-width:1.25270295;stroke-linejoin:round;stroke-miterlimit:10.30000019;stroke-dasharray:none;stroke-opacity:1" />
          <ellipse
             transform="rotate(-90)"
             ry="2.6497605"
             rx="2.6414988"
             cy="412.3848"
             cx="-817.23889"
             id="path306478-2-25-2-1"
             style="fill:#999999;fill-opacity:1;stroke:#999999;stroke-width:1.27874982;stroke-linejoin:round;stroke-miterlimit:10.30000019;stroke-dasharray:none;stroke-opacity:1" />
          <ellipse
             transform="rotate(-90)"
             ry="2.6497605"
             rx="2.6414988"
             cy="412.3848"
             cx="-814.73175"
             id="path306478-4-7"
             style="fill:#666766;fill-opacity:1;stroke:#999999;stroke-width:1.27874994;stroke-linejoin:round;stroke-miterlimit:10.30000019;stroke-dasharray:none;stroke-opacity:1" />
        </g>
      </g>
      <g
         id="g16872-5"
         style="display:inline;fill:none;stroke-linecap:round;stroke-linejoin:round;enable-background:new"
         transform="matrix(-0.26458333,0,0,0.26458333,-508.59459,-69.717411)">
        <g
           transform="matrix(1.0666666,0,0,1.0666666,-468.21834,-824.56154)"
           id="g51384-3-5">
          <ellipse
             transform="rotate(-90)"
             ry="2.6497605"
             rx="2.6414988"
             cy="412.3848"
             cx="-812.33032"
             id="path306478-2-98-8"
             style="fill:#999999;fill-opacity:1;stroke:#999999;stroke-width:1.27874994;stroke-linejoin:round;stroke-miterlimit:10.30000019;stroke-dasharray:none;stroke-opacity:1" />
          <rect
             transform="rotate(-90)"
             y="409.09982"
             x="-817.55377"
             height="6.5699372"
             width="5.4601502"
             id="rect50473-9-4"
             style="opacity:1;fill:#999999;fill-opacity:1;stroke:none;stroke-width:1.25270295;stroke-linejoin:round;stroke-miterlimit:10.30000019;stroke-dasharray:none;stroke-opacity:1" />
          <ellipse
             transform="rotate(-90)"
             ry="2.6497605"
             rx="2.6414988"
             cy="412.3848"
             cx="-817.23889"
             id="path306478-2-25-3-1"
             style="fill:#999999;fill-opacity:1;stroke:#999999;stroke-width:1.27874982;stroke-linejoin:round;stroke-miterlimit:10.30000019;stroke-dasharray:none;stroke-opacity:1" />
          <ellipse
             transform="rotate(-90)"
             ry="2.6497605"
             rx="2.6414988"
             cy="412.3848"
             cx="-814.73175"
             id="path306478-64-9"
             style="fill:#666766;fill-opacity:1;stroke:#999999;stroke-width:1.27874994;stroke-linejoin:round;stroke-miterlimit:10.30000019;stroke-dasharray:none;stroke-opacity:1" />
        </g>
        <g
           transform="matrix(1.0666666,0,0,1.0666666,-468.21834,-787.07883)"
           id="g51384-14-61">
          <ellipse
             transform="rotate(-90)"
             ry="2.6497605"
             rx="2.6414988"
             cy="412.3848"
             cx="-812.33032"
             id="path306478-2-18-0"
             style="fill:#999999;fill-opacity:1;stroke:#999999;stroke-width:1.27874994;stroke-linejoin:round;stroke-miterlimit:10.30000019;stroke-dasharray:none;stroke-opacity:1" />
          <rect
             transform="rotate(-90)"
             y="409.09982"
             x="-817.55377"
             height="6.5699372"
             width="5.4601502"
             id="rect50473-73-0"
             style="opacity:1;fill:#999999;fill-opacity:1;stroke:none;stroke-width:1.25270295;stroke-linejoin:round;stroke-miterlimit:10.30000019;stroke-dasharray:none;stroke-opacity:1" />
          <ellipse
             transform="rotate(-90)"
             ry="2.6497605"
             rx="2.6414988"
             cy="412.3848"
             cx="-817.23889"
             id="path306478-2-25-2-7"
             style="fill:#999999;fill-opacity:1;stroke:#999999;stroke-width:1.27874982;stroke-linejoin:round;stroke-miterlimit:10.30000019;stroke-dasharray:none;stroke-opacity:1" />
          <ellipse
             transform="rotate(-90)"
             ry="2.6497605"
             rx="2.6414988"
             cy="412.3848"
             cx="-814.73175"
             id="path306478-4-3"
             style="fill:#666766;fill-opacity:1;stroke:#999999;stroke-width:1.27874994;stroke-linejoin:round;stroke-miterlimit:10.30000019;stroke-dasharray:none;stroke-opacity:1" />
        </g>
      </g>
      <g
         id="g16872-8"
         style="display:inline;fill:none;stroke-linecap:round;stroke-linejoin:round;enable-background:new"
         transform="matrix(-0.26458333,0,0,0.26458333,-513.86298,-69.717411)">
        <g
           transform="matrix(1.0666666,0,0,1.0666666,-468.21834,-824.56154)"
           id="g51384-3-9">
          <ellipse
             transform="rotate(-90)"
             ry="2.6497605"
             rx="2.6414988"
             cy="412.3848"
             cx="-812.33032"
             id="path306478-2-98-6"
             style="fill:#999999;fill-opacity:1;stroke:#999999;stroke-width:1.27874994;stroke-linejoin:round;stroke-miterlimit:10.30000019;stroke-dasharray:none;stroke-opacity:1" />
          <rect
             transform="rotate(-90)"
             y="409.09982"
             x="-817.55377"
             height="6.5699372"
             width="5.4601502"
             id="rect50473-9-2"
             style="opacity:1;fill:#999999;fill-opacity:1;stroke:none;stroke-width:1.25270295;stroke-linejoin:round;stroke-miterlimit:10.30000019;stroke-dasharray:none;stroke-opacity:1" />
          <ellipse
             transform="rotate(-90)"
             ry="2.6497605"
             rx="2.6414988"
             cy="412.3848"
             cx="-817.23889"
             id="path306478-2-25-3-4"
             style="fill:#999999;fill-opacity:1;stroke:#999999;stroke-width:1.27874982;stroke-linejoin:round;stroke-miterlimit:10.30000019;stroke-dasharray:none;stroke-opacity:1" />
          <ellipse
             transform="rotate(-90)"
             ry="2.6497605"
             rx="2.6414988"
             cy="412.3848"
             cx="-814.73175"
             id="path306478-64-1"
             style="fill:#666766;fill-opacity:1;stroke:#999999;stroke-width:1.27874994;stroke-linejoin:round;stroke-miterlimit:10.30000019;stroke-dasharray:none;stroke-opacity:1" />
        </g>
        <g
           transform="matrix(1.0666666,0,0,1.0666666,-468.21834,-787.07883)"
           id="g51384-14-8">
          <ellipse
             transform="rotate(-90)"
             ry="2.6497605"
             rx="2.6414988"
             cy="412.3848"
             cx="-812.33032"
             id="path306478-2-18-9"
             style="fill:#999999;fill-opacity:1;stroke:#999999;stroke-width:1.27874994;stroke-linejoin:round;stroke-miterlimit:10.30000019;stroke-dasharray:none;stroke-opacity:1" />
          <rect
             transform="rotate(-90)"
             y="409.09982"
             x="-817.55377"
             height="6.5699372"
             width="5.4601502"
             id="rect50473-73-05"
             style="opacity:1;fill:#999999;fill-opacity:1;stroke:none;stroke-width:1.25270295;stroke-linejoin:round;stroke-miterlimit:10.30000019;stroke-dasharray:none;stroke-opacity:1" />
          <ellipse
             transform="rotate(-90)"
             ry="2.6497605"
             rx="2.6414988"
             cy="412.3848"
             cx="-817.23889"
             id="path306478-2-25-2-4"
             style="fill:#999999;fill-opacity:1;stroke:#999999;stroke-width:1.27874982;stroke-linejoin:round;stroke-miterlimit:10.30000019;stroke-dasharray:none;stroke-opacity:1" />
          <ellipse
             transform="rotate(-90)"
             ry="2.6497605"
             rx="2.6414988"
             cy="412.3848"
             cx="-814.73175"
             id="path306478-4-73"
             style="fill:#666766;fill-opacity:1;stroke:#999999;stroke-width:1.27874994;stroke-linejoin:round;stroke-miterlimit:10.30000019;stroke-dasharray:none;stroke-opacity:1" />
        </g>
      </g>
      <g
         id="g16872-73"
         style="display:inline;fill:none;stroke-linecap:round;stroke-linejoin:round;enable-background:new"
         transform="matrix(-0.26458333,0,0,0.26458333,-520.98294,-69.61526)">
        <g
           transform="matrix(1.0666666,0,0,1.0666666,-468.21834,-824.56154)"
           id="g51384-3-0">
          <ellipse
             transform="rotate(-90)"
             ry="2.6497605"
             rx="2.6414988"
             cy="412.3848"
             cx="-812.33032"
             id="path306478-2-98-5"
             style="fill:#999999;fill-opacity:1;stroke:#999999;stroke-width:1.27874994;stroke-linejoin:round;stroke-miterlimit:10.30000019;stroke-dasharray:none;stroke-opacity:1" />
          <rect
             transform="rotate(-90)"
             y="409.09982"
             x="-817.55377"
             height="6.5699372"
             width="5.4601502"
             id="rect50473-9-59"
             style="opacity:1;fill:#999999;fill-opacity:1;stroke:none;stroke-width:1.25270295;stroke-linejoin:round;stroke-miterlimit:10.30000019;stroke-dasharray:none;stroke-opacity:1" />
          <ellipse
             transform="rotate(-90)"
             ry="2.6497605"
             rx="2.6414988"
             cy="412.3848"
             cx="-817.23889"
             id="path306478-2-25-3-3"
             style="fill:#999999;fill-opacity:1;stroke:#999999;stroke-width:1.27874982;stroke-linejoin:round;stroke-miterlimit:10.30000019;stroke-dasharray:none;stroke-opacity:1" />
          <ellipse
             transform="rotate(-90)"
             ry="2.6497605"
             rx="2.6414988"
             cy="412.3848"
             cx="-814.73175"
             id="path306478-64-0"
             style="fill:#666766;fill-opacity:1;stroke:#999999;stroke-width:1.27874994;stroke-linejoin:round;stroke-miterlimit:10.30000019;stroke-dasharray:none;stroke-opacity:1" />
        </g>
        <g
           transform="matrix(1.0666666,0,0,1.0666666,-468.21834,-787.07883)"
           id="g51384-14-7">
          <ellipse
             transform="rotate(-90)"
             ry="2.6497605"
             rx="2.6414988"
             cy="412.3848"
             cx="-812.33032"
             id="path306478-2-18-72"
             style="fill:#999999;fill-opacity:1;stroke:#999999;stroke-width:1.27874994;stroke-linejoin:round;stroke-miterlimit:10.30000019;stroke-dasharray:none;stroke-opacity:1" />
          <rect
             transform="rotate(-90)"
             y="409.09982"
             x="-817.55377"
             height="6.5699372"
             width="5.4601502"
             id="rect50473-73-63"
             style="opacity:1;fill:#999999;fill-opacity:1;stroke:none;stroke-width:1.25270295;stroke-linejoin:round;stroke-miterlimit:10.30000019;stroke-dasharray:none;stroke-opacity:1" />
          <ellipse
             transform="rotate(-90)"
             ry="2.6497605"
             rx="2.6414988"
             cy="412.3848"
             cx="-817.23889"
             id="path306478-2-25-2-5"
             style="fill:#999999;fill-opacity:1;stroke:#999999;stroke-width:1.27874982;stroke-linejoin:round;stroke-miterlimit:10.30000019;stroke-dasharray:none;stroke-opacity:1" />
          <ellipse
             transform="rotate(-90)"
             ry="2.6497605"
             rx="2.6414988"
             cy="412.3848"
             cx="-814.73175"
             id="path306478-4-9"
             style="fill:#666766;fill-opacity:1;stroke:#999999;stroke-width:1.27874994;stroke-linejoin:round;stroke-miterlimit:10.30000019;stroke-dasharray:none;stroke-opacity:1" />
        </g>
      </g>
      <g
         id="g16872-3"
         style="display:inline;fill:none;stroke-linecap:round;stroke-linejoin:round;enable-background:new"
         transform="matrix(-0.26458333,0,0,0.26458333,-525.92959,-69.61526)">
        <g
           transform="matrix(1.0666666,0,0,1.0666666,-468.21834,-824.56154)"
           id="g51384-3-3">
          <ellipse
             transform="rotate(-90)"
             ry="2.6497605"
             rx="2.6414988"
             cy="412.3848"
             cx="-812.33032"
             id="path306478-2-98-4"
             style="fill:#999999;fill-opacity:1;stroke:#999999;stroke-width:1.27874994;stroke-linejoin:round;stroke-miterlimit:10.30000019;stroke-dasharray:none;stroke-opacity:1" />
          <rect
             transform="rotate(-90)"
             y="409.09982"
             x="-817.55377"
             height="6.5699372"
             width="5.4601502"
             id="rect50473-9-1"
             style="opacity:1;fill:#999999;fill-opacity:1;stroke:none;stroke-width:1.25270295;stroke-linejoin:round;stroke-miterlimit:10.30000019;stroke-dasharray:none;stroke-opacity:1" />
          <ellipse
             transform="rotate(-90)"
             ry="2.6497605"
             rx="2.6414988"
             cy="412.3848"
             cx="-817.23889"
             id="path306478-2-25-3-42"
             style="fill:#999999;fill-opacity:1;stroke:#999999;stroke-width:1.27874982;stroke-linejoin:round;stroke-miterlimit:10.30000019;stroke-dasharray:none;stroke-opacity:1" />
          <ellipse
             transform="rotate(-90)"
             ry="2.6497605"
             rx="2.6414988"
             cy="412.3848"
             cx="-814.73175"
             id="path306478-64-6"
             style="fill:#666766;fill-opacity:1;stroke:#999999;stroke-width:1.27874994;stroke-linejoin:round;stroke-miterlimit:10.30000019;stroke-dasharray:none;stroke-opacity:1" />
        </g>
        <g
           transform="matrix(1.0666666,0,0,1.0666666,-468.21834,-787.07883)"
           id="g51384-14-1">
          <ellipse
             transform="rotate(-90)"
             ry="2.6497605"
             rx="2.6414988"
             cy="412.3848"
             cx="-812.33032"
             id="path306478-2-18-5"
             style="fill:#999999;fill-opacity:1;stroke:#999999;stroke-width:1.27874994;stroke-linejoin:round;stroke-miterlimit:10.30000019;stroke-dasharray:none;stroke-opacity:1" />
          <rect
             transform="rotate(-90)"
             y="409.09982"
             x="-817.55377"
             height="6.5699372"
             width="5.4601502"
             id="rect50473-73-60"
             style="opacity:1;fill:#999999;fill-opacity:1;stroke:none;stroke-width:1.25270295;stroke-linejoin:round;stroke-miterlimit:10.30000019;stroke-dasharray:none;stroke-opacity:1" />
          <ellipse
             transform="rotate(-90)"
             ry="2.6497605"
             rx="2.6414988"
             cy="412.3848"
             cx="-817.23889"
             id="path306478-2-25-2-6"
             style="fill:#999999;fill-opacity:1;stroke:#999999;stroke-width:1.27874982;stroke-linejoin:round;stroke-miterlimit:10.30000019;stroke-dasharray:none;stroke-opacity:1" />
          <ellipse
             transform="rotate(-90)"
             ry="2.6497605"
             rx="2.6414988"
             cy="412.3848"
             cx="-814.73175"
             id="path306478-4-37"
             style="fill:#666766;fill-opacity:1;stroke:#999999;stroke-width:1.27874994;stroke-linejoin:round;stroke-miterlimit:10.30000019;stroke-dasharray:none;stroke-opacity:1" />
        </g>
      </g>
      <g
         id="g16872-37"
         style="display:inline;fill:none;stroke-linecap:round;stroke-linejoin:round;enable-background:new"
         transform="matrix(-0.26458333,0,0,0.26458333,-533.91259,-69.61526)">
        <g
           transform="matrix(1.0666666,0,0,1.0666666,-468.21834,-824.56154)"
           id="g51384-3-47">
          <ellipse
             transform="rotate(-90)"
             ry="2.6497605"
             rx="2.6414988"
             cy="412.3848"
             cx="-812.33032"
             id="path306478-2-98-9"
             style="fill:#999999;fill-opacity:1;stroke:#999999;stroke-width:1.27874994;stroke-linejoin:round;stroke-miterlimit:10.30000019;stroke-dasharray:none;stroke-opacity:1" />
          <rect
             transform="rotate(-90)"
             y="409.09982"
             x="-817.55377"
             height="6.5699372"
             width="5.4601502"
             id="rect50473-9-14"
             style="opacity:1;fill:#999999;fill-opacity:1;stroke:none;stroke-width:1.25270295;stroke-linejoin:round;stroke-miterlimit:10.30000019;stroke-dasharray:none;stroke-opacity:1" />
          <ellipse
             transform="rotate(-90)"
             ry="2.6497605"
             rx="2.6414988"
             cy="412.3848"
             cx="-817.23889"
             id="path306478-2-25-3-9"
             style="fill:#999999;fill-opacity:1;stroke:#999999;stroke-width:1.27874982;stroke-linejoin:round;stroke-miterlimit:10.30000019;stroke-dasharray:none;stroke-opacity:1" />
          <ellipse
             transform="rotate(-90)"
             ry="2.6497605"
             rx="2.6414988"
             cy="412.3848"
             cx="-814.73175"
             id="path306478-64-4"
             style="fill:#666766;fill-opacity:1;stroke:#999999;stroke-width:1.27874994;stroke-linejoin:round;stroke-miterlimit:10.30000019;stroke-dasharray:none;stroke-opacity:1" />
        </g>
        <g
           transform="matrix(1.0666666,0,0,1.0666666,-468.21834,-787.07883)"
           id="g51384-14-68">
          <ellipse
             transform="rotate(-90)"
             ry="2.6497605"
             rx="2.6414988"
             cy="412.3848"
             cx="-812.33032"
             id="path306478-2-18-3"
             style="fill:#999999;fill-opacity:1;stroke:#999999;stroke-width:1.27874994;stroke-linejoin:round;stroke-miterlimit:10.30000019;stroke-dasharray:none;stroke-opacity:1" />
          <rect
             transform="rotate(-90)"
             y="409.09982"
             x="-817.55377"
             height="6.5699372"
             width="5.4601502"
             id="rect50473-73-8"
             style="opacity:1;fill:#999999;fill-opacity:1;stroke:none;stroke-width:1.25270295;stroke-linejoin:round;stroke-miterlimit:10.30000019;stroke-dasharray:none;stroke-opacity:1" />
          <ellipse
             transform="rotate(-90)"
             ry="2.6497605"
             rx="2.6414988"
             cy="412.3848"
             cx="-817.23889"
             id="path306478-2-25-2-56"
             style="fill:#999999;fill-opacity:1;stroke:#999999;stroke-width:1.27874982;stroke-linejoin:round;stroke-miterlimit:10.30000019;stroke-dasharray:none;stroke-opacity:1" />
          <ellipse
             transform="rotate(-90)"
             ry="2.6497605"
             rx="2.6414988"
             cy="412.3848"
             cx="-814.73175"
             id="path306478-4-6"
             style="fill:#666766;fill-opacity:1;stroke:#999999;stroke-width:1.27874994;stroke-linejoin:round;stroke-miterlimit:10.30000019;stroke-dasharray:none;stroke-opacity:1" />
        </g>
      </g>
      <g
         id="g16872-6"
         style="display:inline;fill:none;stroke-linecap:round;stroke-linejoin:round;enable-background:new"
         transform="matrix(-0.26458333,0,0,0.26458333,-539.18098,-69.717411)">
        <g
           transform="matrix(1.0666666,0,0,1.0666666,-468.21834,-824.56154)"
           id="g51384-3-2">
          <ellipse
             transform="rotate(-90)"
             ry="2.6497605"
             rx="2.6414988"
             cy="412.3848"
             cx="-812.33032"
             id="path306478-2-98-90"
             style="fill:#999999;fill-opacity:1;stroke:#999999;stroke-width:1.27874994;stroke-linejoin:round;stroke-miterlimit:10.30000019;stroke-dasharray:none;stroke-opacity:1" />
          <rect
             transform="rotate(-90)"
             y="409.09982"
             x="-817.55377"
             height="6.5699372"
             width="5.4601502"
             id="rect50473-9-53"
             style="opacity:1;fill:#999999;fill-opacity:1;stroke:none;stroke-width:1.25270295;stroke-linejoin:round;stroke-miterlimit:10.30000019;stroke-dasharray:none;stroke-opacity:1" />
          <ellipse
             transform="rotate(-90)"
             ry="2.6497605"
             rx="2.6414988"
             cy="412.3848"
             cx="-817.23889"
             id="path306478-2-25-3-41"
             style="fill:#999999;fill-opacity:1;stroke:#999999;stroke-width:1.27874982;stroke-linejoin:round;stroke-miterlimit:10.30000019;stroke-dasharray:none;stroke-opacity:1" />
          <ellipse
             transform="rotate(-90)"
             ry="2.6497605"
             rx="2.6414988"
             cy="412.3848"
             cx="-814.73175"
             id="path306478-64-60"
             style="fill:#666766;fill-opacity:1;stroke:#999999;stroke-width:1.27874994;stroke-linejoin:round;stroke-miterlimit:10.30000019;stroke-dasharray:none;stroke-opacity:1" />
        </g>
        <g
           transform="matrix(1.0666666,0,0,1.0666666,-468.21834,-787.07883)"
           id="g51384-14-0">
          <ellipse
             transform="rotate(-90)"
             ry="2.6497605"
             rx="2.6414988"
             cy="412.3848"
             cx="-812.33032"
             id="path306478-2-18-76"
             style="fill:#999999;fill-opacity:1;stroke:#999999;stroke-width:1.27874994;stroke-linejoin:round;stroke-miterlimit:10.30000019;stroke-dasharray:none;stroke-opacity:1" />
          <rect
             transform="rotate(-90)"
             y="409.09982"
             x="-817.55377"
             height="6.5699372"
             width="5.4601502"
             id="rect50473-73-3"
             style="opacity:1;fill:#999999;fill-opacity:1;stroke:none;stroke-width:1.25270295;stroke-linejoin:round;stroke-miterlimit:10.30000019;stroke-dasharray:none;stroke-opacity:1" />
          <ellipse
             transform="rotate(-90)"
             ry="2.6497605"
             rx="2.6414988"
             cy="412.3848"
             cx="-817.23889"
             id="path306478-2-25-2-61"
             style="fill:#999999;fill-opacity:1;stroke:#999999;stroke-width:1.27874982;stroke-linejoin:round;stroke-miterlimit:10.30000019;stroke-dasharray:none;stroke-opacity:1" />
          <ellipse
             transform="rotate(-90)"
             ry="2.6497605"
             rx="2.6414988"
             cy="412.3848"
             cx="-814.73175"
             id="path306478-4-0"
             style="fill:#666766;fill-opacity:1;stroke:#999999;stroke-width:1.27874994;stroke-linejoin:round;stroke-miterlimit:10.30000019;stroke-dasharray:none;stroke-opacity:1" />
        </g>
      </g>
      <text
         transform="rotate(-90)"
         id="text17077"
         y="-556.23584"
         x="77.260651"
         style="font-style:normal;font-variant:normal;font-weight:bold;font-stretch:normal;font-size:2.82222223px;line-height:125%;font-family:'Overpass Mono';-inkscape-font-specification:'Overpass Mono Bold';letter-spacing:0px;word-spacing:0px;display:inline;fill:#000000;fill-opacity:1;stroke:none;stroke-width:0.26458332px;stroke-linecap:butt;stroke-linejoin:miter;stroke-opacity:1;enable-background:new"
         xml:space="preserve"><tspan
           style="fill:#ffffff;stroke-width:0.26458332px"
           y="-556.23584"
           x="77.260651"
           id="tspan17075"
           sodipodi:role="line">JOYSTICK 2W CAR</tspan></text>
    </g>
  </g>
</svg>
